<?xml version="1.0" encoding="iso-8859-1"?>
<!-- Generator: Adobe Illustrator 19.0.0, SVG Export Plug-In . SVG Version: 6.00 Build 0)  -->
<svg version="1.1" id="Capa_1" xmlns="http://www.w3.org/2000/svg" xmlns:xlink="http://www.w3.org/1999/xlink" x="0px" y="0px"
	 viewBox="0 0 512 512" style="enable-background:new 0 0 512 512;" xml:space="preserve">
<path style="fill:#FFFFFF;" d="M448.8,391.2c-17.6,0-32-14.4-32-32s14.4-31.2,32-31.2s32,14.4,32,32
	C480.8,376.8,466.4,391.2,448.8,391.2z"/>
<path style="fill:#193651;" d="M448.8,399.2L448.8,399.2c-21.6,0-40-17.6-40-40c0-10.4,4-20.8,12-28c7.2-7.2,17.6-11.2,28-11.2
	c21.6,0,40,17.6,40,40c0,10.4-4,20.8-12,28C469.6,395.2,460,399.2,448.8,399.2z M448.8,336c-6.4,0-12,2.4-16.8,7.2
	c-4.8,4.8-7.2,10.4-7.2,16.8c0,12.8,10.4,24,24,24v8v-8c6.4,0,12-2.4,16.8-7.2c4.8-4.8,7.2-10.4,7.2-16.8
	C472.8,346.4,462.4,336,448.8,336z"/>
<rect x="248.8" y="8" style="fill:#FFFFFF;" width="255.2" height="163.2"/>
<path style="fill:#193651;" d="M512,179.2H240.8V0H512V179.2z M256.8,163.2H496V16H256.8V163.2z"/>
<rect x="288.8" y="34.4" style="fill:#193651;" width="174.4" height="16"/>
<rect x="288.8" y="79.2" style="fill:#193651;" width="16" height="16"/>
<rect x="328.8" y="79.2" style="fill:#193651;" width="16" height="16"/>
<rect x="368.8" y="79.2" style="fill:#193651;" width="16" height="16"/>
<rect x="408" y="79.2" style="fill:#193651;" width="16" height="16"/>
<rect x="448" y="79.2" style="fill:#193651;" width="16" height="16"/>
<path style="fill:#FFBF5D;" d="M417.6,422.4H480c13.6,0,24,10.4,24,24V496H393.6v-49.6C393.6,433.6,404.8,422.4,417.6,422.4z"/>
<path style="fill:#193651;" d="M512,504H385.6v-57.6c0-17.6,14.4-32,32-32H480c17.6,0,32,14.4,32,32V504z M401.6,488H496v-41.6
	c0-8.8-7.2-16-16-16h-62.4c-8.8,0-16,7.2-16,16V488z"/>
<path style="fill:#FFFFFF;" d="M304,391.2c-17.6,0-32-14.4-32-32s14.4-31.2,32-31.2s32,14.4,32,32
	C335.2,376.8,321.6,391.2,304,391.2z"/>
<path style="fill:#193651;" d="M304,399.2L304,399.2c-21.6,0-40-17.6-40-40c0-10.4,4-20.8,12-28c7.2-7.2,17.6-11.2,28-11.2
	c21.6,0,40,17.6,40,40c0,10.4-4,20.8-12,28S314.4,399.2,304,399.2z M304,336c-6.4,0-12,2.4-16.8,7.2c-4.8,4.8-7.2,10.4-7.2,16.8
	c0,12.8,10.4,24,24,24v8v-8c6.4,0,12-2.4,16.8-7.2c4.8-4.8,7.2-10.4,7.2-16.8C327.2,346.4,316.8,336,304,336z"/>
<path style="fill:#27A2DE;" d="M272.8,422.4h62.4c13.6,0,24,10.4,24,24V496H248.8v-49.6C248.8,433.6,259.2,422.4,272.8,422.4z"/>
<path style="fill:#193651;" d="M366.4,504H240.8v-57.6c0-17.6,14.4-32,32-32h62.4c17.6,0,32,14.4,32,32V504H366.4z M256.8,488h94.4
	v-41.6c0-8.8-7.2-16-16-16h-62.4c-8.8,0-16,7.2-16,16V488z"/>
<path style="fill:#FFFFFF;" d="M177.6,187.2L177.6,187.2h-120C30.4,187.2,8,209.6,8,236.8V368h37.6v136h131.2V249.6
	c0-0.8,0.8-0.8,1.6,0l20,45.6c8.8,20,36,24,50.4,7.2l57.6-68c8-9.6,7.2-24.8-2.4-33.6l0,0c-9.6-8.8-24.8-7.2-32.8,2.4l-40,48
	l-8.8-20C213.6,210.4,197.6,194.4,177.6,187.2L177.6,187.2z"/>
<path style="fill:#193651;" d="M177.6,512h-132c-4.8,0-8-3.2-8-8V376H8c-4.8,0-8-3.2-8-8V236c0-32,25.6-57.6,57.6-57.6h120
	c0.8,0,1.6,0,3.2,0.8c22.4,8.8,39.2,25.6,48.8,47.2l4,8.8l32-37.6c5.6-7.2,14.4-11.2,24-11.2c7.2,0,15.2,2.4,20.8,8
	c12.8,11.2,14.4,32,3.2,44.8l-57.6,68c-8,8-19.2,12.8-29.6,12.8c-15.2,0-28.8-8.8-34.4-22.4l-6.4-13.6v220
	C185.6,508.8,181.6,512,177.6,512z M53.6,496h115.2V249.6c0-4.8,4-8.8,8.8-8.8c3.2,0,6.4,2.4,8,5.6l20,45.6c3.2,8,11.2,12.8,20,12.8
	c6.4,0,12.8-2.4,16.8-8l57.6-68c5.6-6.4,4.8-16.8-1.6-22.4c-6.4-5.6-16-4.8-21.6,1.6l-40,48c-1.6,2.4-4.8,3.2-7.2,2.4
	c-2.4,0-4.8-2.4-6.4-4.8l-8.8-20c-7.2-17.6-21.6-30.4-38.4-37.6H57.6C34.4,196,16,214.4,16,237.6V360h29.6c4.8,0,8,3.2,8,8V496z"/>
<path style="fill:#D3D7DA;" d="M77.6,472.8v-136H39.2V236c0-9.6,8-17.6,17.6-17.6h112c-13.6,4-23.2,16-23.2,31.2v223.2H77.6z"/>
<rect x="104" y="373.6" style="fill:#193651;" width="16" height="130.4"/>
<circle style="fill:#FFFFFF;" cx="112" cy="120" r="40"/>
<path style="fill:#193651;" d="M112,168.8c-26.4,0-48-21.6-48-48s21.6-48,48-48s48,21.6,48,48C160.8,147.2,139.2,168.8,112,168.8z
	 M112,88c-17.6,0-32,14.4-32,32s14.4,32,32,32s32-14.4,32-32C144.8,102.4,130.4,88,112,88z"/>
<rect x="104" y="240" style="fill:#193651;" width="16" height="16"/>
<rect x="104" y="286.4" style="fill:#193651;" width="16" height="16"/>
<rect x="104" y="332.8" style="fill:#193651;" width="16" height="16"/>
<g>
</g>
<g>
</g>
<g>
</g>
<g>
</g>
<g>
</g>
<g>
</g>
<g>
</g>
<g>
</g>
<g>
</g>
<g>
</g>
<g>
</g>
<g>
</g>
<g>
</g>
<g>
</g>
<g>
</g>
</svg>
